{
    "key": "group_5eb31465c18ef",
    "title": "ACF - Layouts - Parent (copy)",
    "fields": [
        {
            "key": "field_5eb31465d42fb",
            "label": "Page Content",
            "name": "",
            "type": "tab",
            "instructions": "",
            "required": 0,
            "conditional_logic": 0,
            "wrapper": {
                "width": "",
                "class": "",
                "id": ""
            },
            "placement": "top",
            "endpoint": 0
        },
        {
            "key": "field_5eb31465d4322",
            "label": "Flexible Tab Content Block",
            "name": "flexible_tab_content_block",
            "type": "flexible_content",
            "instructions": "",
            "required": 0,
            "conditional_logic": 0,
            "wrapper": {
                "width": "",
                "class": "",
                "id": ""
            },
            "layouts": {
                "5a9f2336c20ac": {
                    "key": "5a9f2336c20ac",
                    "name": "text_block",
                    "label": "Text",
                    "display": "block",
                    "sub_fields": [
                        {
                            "key": "field_5eb31465e1d58",
                            "label": "Content",
                            "name": "",
                            "type": "tab",
                            "instructions": "",
                            "required": 0,
                            "conditional_logic": 0,
                            "wrapper": {
                                "width": "",
                                "class": "",
                                "id": ""
                            },
                            "placement": "top",
                            "endpoint": 0
                        },
                        {
                            "key": "field_5eb31465e1d8d",
                            "label": "Editor",
                            "name": "editor",
                            "type": "wysiwyg",
                            "instructions": "",
                            "required": 0,
                            "conditional_logic": 0,
                            "wrapper": {
                                "width": "",
                                "class": "",
                                "id": ""
                            },
                            "default_value": "",
                            "tabs": "all",
                            "toolbar": "full",
                            "media_upload": 1,
                            "delay": 0
                        },
                        {
                            "key": "field_5eb31465e1db7",
                            "label": "Default tabs",
                            "name": "",
                            "type": "clone",
                            "instructions": "",
                            "required": 0,
                            "conditional_logic": 0,
                            "wrapper": {
                                "width": "",
                                "class": "",
                                "id": ""
                            },
                            "clone": [
                                "group_5ad7c67f30e34"
                            ],
                            "display": "seamless",
                            "layout": "block",
                            "prefix_label": 0,
                            "prefix_name": 0
                        }
                    ],
                    "min": "",
                    "max": ""
                },
                "5b1ecf4c763bf": {
                    "key": "5b1ecf4c763bf",
                    "name": "grid_-_2_column",
                    "label": "Grid - 2 Column",
                    "display": "block",
                    "sub_fields": [
                        {
                            "key": "field_5eb31465e1ddf",
                            "label": "Content",
                            "name": "",
                            "type": "tab",
                            "instructions": "",
                            "required": 0,
                            "conditional_logic": 0,
                            "wrapper": {
                                "width": "",
                                "class": "",
                                "id": ""
                            },
                            "placement": "top",
                            "endpoint": 0
                        },
                        {
                            "key": "field_5eb31465e1e06",
                            "label": "Left Content Type",
                            "name": "left_content_type",
                            "type": "select",
                            "instructions": "",
                            "required": 0,
                            "conditional_logic": 0,
                            "wrapper": {
                                "width": "50",
                                "class": "",
                                "id": ""
                            },
                            "choices": {
                                "Text": "Text",
                                "Image": "Image",
                                "Video": "Video",
                                "Gallery": "Gallery"
                            },
                            "default_value": [
                                "Text"
                            ],
                            "allow_null": 0,
                            "multiple": 0,
                            "ui": 0,
                            "return_format": "value",
                            "ajax": 0,
                            "placeholder": ""
                        },
                        {
                            "key": "field_5eb31465e1e2e",
                            "label": "Right Content Type",
                            "name": "right_content_type",
                            "type": "select",
                            "instructions": "",
                            "required": 0,
                            "conditional_logic": 0,
                            "wrapper": {
                                "width": "50",
                                "class": "",
                                "id": ""
                            },
                            "choices": {
                                "Text": "Text",
                                "Image": "Image",
                                "Video": "Video",
                                "Gallery": "Gallery"
                            },
                            "default_value": [
                                "Text"
                            ],
                            "allow_null": 0,
                            "multiple": 0,
                            "ui": 0,
                            "return_format": "value",
                            "ajax": 0,
                            "placeholder": ""
                        },
                        {
                            "key": "field_5eb31465e1e55",
                            "label": "Left Content",
                            "name": "left_content_copy",
                            "type": "wysiwyg",
                            "instructions": "",
                            "required": 0,
                            "conditional_logic": [
                                [
                                    {
                                        "field": "field_5eb31465e1e06",
                                        "operator": "==",
                                        "value": "Text"
                                    }
                                ]
                            ],
                            "wrapper": {
                                "width": "50",
                                "class": "",
                                "id": ""
                            },
                            "default_value": "",
                            "tabs": "all",
                            "toolbar": "full",
                            "media_upload": 1,
                            "delay": 0
                        },
                        {
                            "key": "field_5eb31465e1e7c",
                            "label": "Left Content",
                            "name": "left_content_image",
                            "type": "clone",
                            "instructions": "",
                            "required": 0,
                            "conditional_logic": [
                                [
                                    {
                                        "field": "field_5eb31465e1e06",
                                        "operator": "==",
                                        "value": "Image"
                                    }
                                ]
                            ],
                            "wrapper": {
                                "width": "50",
                                "class": "",
                                "id": ""
                            },
                            "clone": [
                                "field_5bd74d6174dac"
                            ],
                            "display": "group",
                            "layout": "block",
                            "prefix_label": 1,
                            "prefix_name": 1
                        },
                        {
                            "key": "field_5eb31465e1ea3",
                            "label": "Left Content",
                            "name": "left_content_gallery",
                            "type": "clone",
                            "instructions": "",
                            "required": 0,
                            "conditional_logic": [
                                [
                                    {
                                        "field": "field_5eb31465e1e06",
                                        "operator": "==",
                                        "value": "Gallery"
                                    }
                                ]
                            ],
                            "wrapper": {
                                "width": "50",
                                "class": "",
                                "id": ""
                            },
                            "clone": [
                                "field_5bd78d7015362"
                            ],
                            "display": "group",
                            "layout": "block",
                            "prefix_label": 1,
                            "prefix_name": 1
                        },
                        {
                            "key": "field_5eb31465e1eca",
                            "label": "Left Content",
                            "name": "left_content_video",
                            "type": "clone",
                            "instructions": "",
                            "required": 0,
                            "conditional_logic": [
                                [
                                    {
                                        "field": "field_5eb31465e1e06",
                                        "operator": "==",
                                        "value": "Video"
                                    }
                                ]
                            ],
                            "wrapper": {
                                "width": "50",
                                "class": "",
                                "id": ""
                            },
                            "clone": [
                                "field_5bd74d940690a"
                            ],
                            "display": "group",
                            "layout": "block",
                            "prefix_label": 1,
                            "prefix_name": 1
                        },
                        {
                            "key": "field_5eb31465e1ef1",
                            "label": "Right Content",
                            "name": "right_content_copy",
                            "type": "wysiwyg",
                            "instructions": "",
                            "required": 0,
                            "conditional_logic": [
                                [
                                    {
                                        "field": "field_5eb31465e1e2e",
                                        "operator": "==",
                                        "value": "Text"
                                    }
                                ]
                            ],
                            "wrapper": {
                                "width": "50",
                                "class": "",
                                "id": ""
                            },
                            "default_value": "",
                            "tabs": "all",
                            "toolbar": "full",
                            "media_upload": 1,
                            "delay": 0
                        },
                        {
                            "key": "field_5eb31465e1f18",
                            "label": "Right Content",
                            "name": "right_content_image",
                            "type": "clone",
                            "instructions": "",
                            "required": 0,
                            "conditional_logic": [
                                [
                                    {
                                        "field": "field_5eb31465e1e2e",
                                        "operator": "==",
                                        "value": "Image"
                                    }
                                ]
                            ],
                            "wrapper": {
                                "width": "50",
                                "class": "",
                                "id": ""
                            },
                            "clone": [
                                "field_5bd74d6174dac"
                            ],
                            "display": "group",
                            "layout": "block",
                            "prefix_label": 1,
                            "prefix_name": 1
                        },
                        {
                            "key": "field_5eb31465e1f3e",
                            "label": "Right Content",
                            "name": "right_content_gallery",
                            "type": "clone",
                            "instructions": "",
                            "required": 0,
                            "conditional_logic": [
                                [
                                    {
                                        "field": "field_5eb31465e1e2e",
                                        "operator": "==",
                                        "value": "Gallery"
                                    }
                                ]
                            ],
                            "wrapper": {
                                "width": "50",
                                "class": "",
                                "id": ""
                            },
                            "clone": [
                                "field_5bd78d7015362"
                            ],
                            "display": "group",
                            "layout": "block",
                            "prefix_label": 1,
                            "prefix_name": 1
                        },
                        {
                            "key": "field_5eb31465e1f66",
                            "label": "Right Content",
                            "name": "right_content_video",
                            "type": "clone",
                            "instructions": "",
                            "required": 0,
                            "conditional_logic": [
                                [
                                    {
                                        "field": "field_5eb31465e1e2e",
                                        "operator": "==",
                                        "value": "Video"
                                    }
                                ]
                            ],
                            "wrapper": {
                                "width": "50",
                                "class": "",
                                "id": ""
                            },
                            "clone": [
                                "field_5bd74d940690a"
                            ],
                            "display": "group",
                            "layout": "block",
                            "prefix_label": 1,
                            "prefix_name": 1
                        },
                        {
                            "key": "field_5eb31465e1f8d",
                            "label": "Grid Width",
                            "name": "",
                            "type": "tab",
                            "instructions": "",
                            "required": 0,
                            "conditional_logic": 0,
                            "wrapper": {
                                "width": "",
                                "class": "",
                                "id": ""
                            },
                            "placement": "top",
                            "endpoint": 0
                        },
                        {
                            "key": "field_5eb31465e1fd5",
                            "label": "Grid Width Instruction",
                            "name": "",
                            "type": "message",
                            "instructions": "",
                            "required": 0,
                            "conditional_logic": 0,
                            "wrapper": {
                                "width": "",
                                "class": "",
                                "id": ""
                            },
                            "message": "Adds up to 12",
                            "new_lines": "wpautop",
                            "esc_html": 0
                        },
                        {
                            "key": "field_5eb31465e2024",
                            "label": "Left Width",
                            "name": "left_width",
                            "type": "number",
                            "instructions": "",
                            "required": 0,
                            "conditional_logic": 0,
                            "wrapper": {
                                "width": "50",
                                "class": "",
                                "id": ""
                            },
                            "default_value": 6,
                            "placeholder": "",
                            "prepend": "",
                            "append": "",
                            "min": 1,
                            "max": 12,
                            "step": 1
                        },
                        {
                            "key": "field_5eb31465e2073",
                            "label": "Right Width",
                            "name": "right_width",
                            "type": "number",
                            "instructions": "",
                            "required": 0,
                            "conditional_logic": 0,
                            "wrapper": {
                                "width": "50",
                                "class": "",
                                "id": ""
                            },
                            "default_value": 6,
                            "placeholder": "",
                            "prepend": "",
                            "append": "",
                            "min": 1,
                            "max": 12,
                            "step": 1
                        },
                        {
                            "key": "field_5eb31465e20c3",
                            "label": "Default tabs",
                            "name": "",
                            "type": "clone",
                            "instructions": "",
                            "required": 0,
                            "conditional_logic": 0,
                            "wrapper": {
                                "width": "",
                                "class": "",
                                "id": ""
                            },
                            "clone": [
                                "group_5ad7c67f30e34"
                            ],
                            "display": "seamless",
                            "layout": "",
                            "prefix_label": 0,
                            "prefix_name": 0
                        }
                    ],
                    "min": "",
                    "max": ""
                },
                "5b3fb45fe26a3": {
                    "key": "5b3fb45fe26a3",
                    "name": "full_width_media",
                    "label": "Media",
                    "display": "block",
                    "sub_fields": [
                        {
                            "key": "field_5eb31465e22ea",
                            "label": "Content",
                            "name": "",
                            "type": "tab",
                            "instructions": "",
                            "required": 0,
                            "conditional_logic": 0,
                            "wrapper": {
                                "width": "",
                                "class": "",
                                "id": ""
                            },
                            "placement": "top",
                            "endpoint": 0
                        },
                        {
                            "key": "field_5eb31465e2339",
                            "label": "Media Type",
                            "name": "media_type",
                            "type": "select",
                            "instructions": "",
                            "required": 0,
                            "conditional_logic": 0,
                            "wrapper": {
                                "width": "",
                                "class": "",
                                "id": ""
                            },
                            "choices": {
                                "Image": "Image",
                                "Image Slider": "Image Slider",
                                "Video": "Video"
                            },
                            "default_value": [
                                "Image"
                            ],
                            "allow_null": 0,
                            "multiple": 0,
                            "ui": 0,
                            "return_format": "value",
                            "ajax": 0,
                            "placeholder": ""
                        },
                        {
                            "key": "field_5eb31465e2388",
                            "label": "Image",
                            "name": "image",
                            "type": "clone",
                            "instructions": "",
                            "required": 0,
                            "conditional_logic": [
                                [
                                    {
                                        "field": "field_5eb31465e2339",
                                        "operator": "==",
                                        "value": "Image"
                                    }
                                ]
                            ],
                            "wrapper": {
                                "width": "",
                                "class": "",
                                "id": ""
                            },
                            "clone": [
                                "field_5bd74d6174dac"
                            ],
                            "display": "group",
                            "layout": "block",
                            "prefix_label": 0,
                            "prefix_name": 1
                        },
                        {
                            "key": "field_5eb31465e23d9",
                            "label": "Image Slider",
                            "name": "image_slider",
                            "type": "clone",
                            "instructions": "",
                            "required": 0,
                            "conditional_logic": [
                                [
                                    {
                                        "field": "field_5eb31465e2339",
                                        "operator": "==",
                                        "value": "Image Slider"
                                    }
                                ]
                            ],
                            "wrapper": {
                                "width": "",
                                "class": "",
                                "id": ""
                            },
                            "clone": [
                                "field_5bd78d7015362"
                            ],
                            "display": "group",
                            "layout": "block",
                            "prefix_label": 0,
                            "prefix_name": 1
                        },
                        {
                            "key": "field_5eb31465e2435",
                            "label": "Video",
                            "name": "video",
                            "type": "clone",
                            "instructions": "Youtube video url",
                            "required": 0,
                            "conditional_logic": [
                                [
                                    {
                                        "field": "field_5eb31465e2339",
                                        "operator": "==",
                                        "value": "Video"
                                    }
                                ]
                            ],
                            "wrapper": {
                                "width": "",
                                "class": "",
                                "id": ""
                            },
                            "clone": [
                                "field_5bd74d940690a"
                            ],
                            "display": "group",
                            "layout": "block",
                            "prefix_label": 0,
                            "prefix_name": 1
                        },
                        {
                            "key": "field_5eb31465e2485",
                            "label": "Video Aspect Ratio",
                            "name": "video_aspect_ratio",
                            "type": "select",
                            "instructions": "",
                            "required": 0,
                            "conditional_logic": [
                                [
                                    {
                                        "field": "field_5eb31465e2339",
                                        "operator": "==",
                                        "value": "Video"
                                    }
                                ]
                            ],
                            "wrapper": {
                                "width": "",
                                "class": "",
                                "id": ""
                            },
                            "choices": {
                                "21by9": "21",
                                "16by9": "16: 9",
                                "4by3": "4",
                                "1by1": "1"
                            },
                            "default_value": [
                                "16by9"
                            ],
                            "allow_null": 0,
                            "multiple": 0,
                            "ui": 0,
                            "ajax": 0,
                            "return_format": "value",
                            "placeholder": ""
                        },
                        {
                            "key": "field_5eb31465e24d4",
                            "label": "Max Width",
                            "name": "max_width",
                            "type": "text",
                            "instructions": "",
                            "required": 0,
                            "conditional_logic": 0,
                            "wrapper": {
                                "width": "50",
                                "class": "",
                                "id": ""
                            },
                            "default_value": "100%",
                            "placeholder": "",
                            "prepend": "",
                            "append": "",
                            "maxlength": ""
                        },
                        {
                            "key": "field_5eb31465e2525",
                            "label": "Height",
                            "name": "height",
                            "type": "text",
                            "instructions": "",
                            "required": 0,
                            "conditional_logic": 0,
                            "wrapper": {
                                "width": "50",
                                "class": "",
                                "id": ""
                            },
                            "default_value": "auto",
                            "placeholder": "",
                            "prepend": "",
                            "append": "",
                            "maxlength": ""
                        },
                        {
                            "key": "field_5eb31465e2574",
                            "label": "Default tabs",
                            "name": "",
                            "type": "clone",
                            "instructions": "",
                            "required": 0,
                            "conditional_logic": 0,
                            "wrapper": {
                                "width": "",
                                "class": "",
                                "id": ""
                            },
                            "clone": [
                                "group_5ad7c67f30e34"
                            ],
                            "display": "seamless",
                            "layout": "block",
                            "prefix_label": 0,
                            "prefix_name": 0
                        }
                    ],
                    "min": "",
                    "max": ""
                },
                "layout_5c09ab5c2f9b8": {
                    "key": "layout_5c09ab5c2f9b8",
                    "name": "call_to_action",
                    "label": "Call to action",
                    "display": "block",
                    "sub_fields": [
                        {
                            "key": "field_5eb31465e25c3",
                            "label": "Content",
                            "name": "",
                            "type": "tab",
                            "instructions": "",
                            "required": 0,
                            "conditional_logic": 0,
                            "wrapper": {
                                "width": "",
                                "class": "",
                                "id": ""
                            },
                            "placement": "top",
                            "endpoint": 0
                        },
                        {
                            "key": "field_5eb31465e2612",
                            "label": "Copy",
                            "name": "copy",
                            "type": "wysiwyg",
                            "instructions": "",
                            "required": 0,
                            "conditional_logic": 0,
                            "wrapper": {
                                "width": "",
                                "class": "",
                                "id": ""
                            },
                            "default_value": "",
                            "tabs": "all",
                            "toolbar": "full",
                            "media_upload": 1,
                            "delay": 0
                        },
                        {
                            "key": "field_5eb31465e2667",
                            "label": "Button",
                            "name": "button",
                            "type": "link",
                            "instructions": "",
                            "required": 0,
                            "conditional_logic": 0,
                            "wrapper": {
                                "width": "50",
                                "class": "",
                                "id": ""
                            },
                            "return_format": "array"
                        },
                        {
                            "key": "field_5eb31465e26b7",
                            "label": "Button Type",
                            "name": "button_type",
                            "type": "clone",
                            "instructions": "",
                            "required": 0,
                            "conditional_logic": 0,
                            "wrapper": {
                                "width": "50",
                                "class": "",
                                "id": ""
                            },
                            "clone": [
                                "group_5bec588dce4ba"
                            ],
                            "display": "group",
                            "layout": "block",
                            "prefix_label": 0,
                            "prefix_name": 1
                        },
                        {
                            "key": "field_5eb31465e2706",
                            "label": "Default tabs",
                            "name": "",
                            "type": "clone",
                            "instructions": "",
                            "required": 0,
                            "conditional_logic": 0,
                            "wrapper": {
                                "width": "",
                                "class": "",
                                "id": ""
                            },
                            "clone": [
                                "group_5ad7c67f30e34"
                            ],
                            "display": "seamless",
                            "layout": "block",
                            "prefix_label": 0,
                            "prefix_name": 0
                        }
                    ],
                    "min": "",
                    "max": ""
                }
            },
            "button_label": "Add Layout",
            "min": 0,
            "max": ""
        }
    ],
    "location": [
        [
            {
                "param": "post_type",
                "operator": "==",
                "value": "page"
            },
            {
                "param": "post_type",
                "operator": "!=",
                "value": "page"
            }
        ]
    ],
    "menu_order": 3,
    "position": "acf_after_title",
    "style": "default",
    "label_placement": "top",
    "instruction_placement": "label",
    "hide_on_screen": [
        "the_content"
    ],
    "active": 1,
    "description": "",
    "modified": 1588798677
}